{
  "configVersion": 2,
  "packages": [
    {
      "name": "animations",
      "rootUri": "file:///Users/oh/development/flutter/.pub-cache/hosted/pub.dartlang.org/animations-2.0.2",
      "packageUri": "lib/",
      "languageVersion": "2.12"
    },
    {
      "name": "async",
      "rootUri": "file:///Users/oh/development/flutter/.pub-cache/hosted/pub.dartlang.org/async-2.8.2",
      "packageUri": "lib/",
      "languageVersion": "2.12"
    },
    {
      "name": "audio_session",
      "rootUri": "file:///Users/oh/development/flutter/.pub-cache/hosted/pub.dartlang.org/audio_session-0.1.6+1",
      "packageUri": "lib/",
      "languageVersion": "2.12"
    },
    {
      "name": "boolean_selector",
      "rootUri": "file:///Users/oh/development/flutter/.pub-cache/hosted/pub.dartlang.org/boolean_selector-2.1.0",
      "packageUri": "lib/",
      "languageVersion": "2.12"
    },
    {
      "name": "characters",
      "rootUri": "file:///Users/oh/development/flutter/.pub-cache/hosted/pub.dartlang.org/characters-1.2.0",
      "packageUri": "lib/",
      "languageVersion": "2.12"
    },
    {
      "name": "charcode",
      "rootUri": "file:///Users/oh/development/flutter/.pub-cache/hosted/pub.dartlang.org/charcode-1.3.1",
      "packageUri": "lib/",
      "languageVersion": "2.12"
    },
    {
      "name": "clock",
      "rootUri": "file:///Users/oh/development/flutter/.pub-cache/hosted/pub.dartlang.org/clock-1.1.0",
      "packageUri": "lib/",
      "languageVersion": "2.12"
    },
    {
      "name": "collection",
      "rootUri": "file:///Users/oh/development/flutter/.pub-cache/hosted/pub.dartlang.org/collection-1.15.0",
      "packageUri": "lib/",
      "languageVersion": "2.12"
    },
    {
      "name": "cross_file",
      "rootUri": "file:///Users/oh/development/flutter/.pub-cache/hosted/pub.dartlang.org/cross_file-0.3.2",
      "packageUri": "lib/",
      "languageVersion": "2.12"
    },
    {
      "name": "crypto",
      "rootUri": "file:///Users/oh/development/flutter/.pub-cache/hosted/pub.dartlang.org/crypto-3.0.1",
      "packageUri": "lib/",
      "languageVersion": "2.12"
    },
    {
      "name": "cupertino_icons",
      "rootUri": "file:///Users/oh/development/flutter/.pub-cache/hosted/pub.dartlang.org/cupertino_icons-1.0.4",
      "packageUri": "lib/",
      "languageVersion": "2.12"
    },
    {
      "name": "dartx",
      "rootUri": "file:///Users/oh/development/flutter/.pub-cache/hosted/pub.dartlang.org/dartx-1.1.0",
      "packageUri": "lib/",
      "languageVersion": "2.12"
    },
    {
      "name": "disk_space",
      "rootUri": "file:///Users/oh/development/flutter/.pub-cache/hosted/pub.dartlang.org/disk_space-0.2.1",
      "packageUri": "lib/",
      "languageVersion": "2.12"
    },
    {
      "name": "fake_async",
      "rootUri": "file:///Users/oh/development/flutter/.pub-cache/hosted/pub.dartlang.org/fake_async-1.2.0",
      "packageUri": "lib/",
      "languageVersion": "2.12"
    },
    {
      "name": "ffi",
      "rootUri": "file:///Users/oh/development/flutter/.pub-cache/hosted/pub.dartlang.org/ffi-1.1.2",
      "packageUri": "lib/",
      "languageVersion": "2.12"
    },
    {
      "name": "ffmpeg_kit_flutter",
      "rootUri": "file:///Users/oh/development/flutter/.pub-cache/hosted/pub.dartlang.org/ffmpeg_kit_flutter-4.5.1-LTS",
      "packageUri": "lib/",
      "languageVersion": "2.12"
    },
    {
      "name": "ffmpeg_kit_flutter_platform_interface",
      "rootUri": "file:///Users/oh/development/flutter/.pub-cache/hosted/pub.dartlang.org/ffmpeg_kit_flutter_platform_interface-0.2.1",
      "packageUri": "lib/",
      "languageVersion": "2.12"
    },
    {
      "name": "file",
      "rootUri": "file:///Users/oh/development/flutter/.pub-cache/hosted/pub.dartlang.org/file-6.1.2",
      "packageUri": "lib/",
      "languageVersion": "2.12"
    },
    {
      "name": "file_picker",
      "rootUri": "file:///Users/oh/development/flutter/.pub-cache/hosted/pub.dartlang.org/file_picker-4.5.1",
      "packageUri": "lib/",
      "languageVersion": "2.12"
    },
    {
      "name": "file_picker_cross",
      "rootUri": "file:///Users/oh/development/flutter/.pub-cache/hosted/pub.dartlang.org/file_picker_cross-4.5.0",
      "packageUri": "lib/",
      "languageVersion": "2.12"
    },
    {
      "name": "file_saver",
      "rootUri": "file:///Users/oh/development/flutter/.pub-cache/hosted/pub.dartlang.org/file_saver-0.1.0",
      "packageUri": "lib/",
      "languageVersion": "2.12"
    },
    {
      "name": "file_selector",
      "rootUri": "file:///Users/oh/development/flutter/.pub-cache/hosted/pub.dartlang.org/file_selector-0.8.2+1",
      "packageUri": "lib/",
      "languageVersion": "2.12"
    },
    {
      "name": "file_selector_linux",
      "rootUri": "file:///Users/oh/development/flutter/.pub-cache/hosted/pub.dartlang.org/file_selector_linux-0.0.2+1",
      "packageUri": "lib/",
      "languageVersion": "2.12"
    },
    {
      "name": "file_selector_macos",
      "rootUri": "file:///Users/oh/development/flutter/.pub-cache/hosted/pub.dartlang.org/file_selector_macos-0.0.4+1",
      "packageUri": "lib/",
      "languageVersion": "2.12"
    },
    {
      "name": "file_selector_platform_interface",
      "rootUri": "file:///Users/oh/development/flutter/.pub-cache/hosted/pub.dartlang.org/file_selector_platform_interface-2.0.4",
      "packageUri": "lib/",
      "languageVersion": "2.12"
    },
    {
      "name": "file_selector_web",
      "rootUri": "file:///Users/oh/development/flutter/.pub-cache/hosted/pub.dartlang.org/file_selector_web-0.8.1+3",
      "packageUri": "lib/",
      "languageVersion": "2.12"
    },
    {
      "name": "file_selector_windows",
      "rootUri": "file:///Users/oh/development/flutter/.pub-cache/hosted/pub.dartlang.org/file_selector_windows-0.0.2+1",
      "packageUri": "lib/",
      "languageVersion": "2.12"
    },
    {
      "name": "flex_color_scheme",
      "rootUri": "file:///Users/oh/development/flutter/.pub-cache/hosted/pub.dartlang.org/flex_color_scheme-4.2.0",
      "packageUri": "lib/",
      "languageVersion": "2.15"
    },
    {
      "name": "flutter",
      "rootUri": "file:///Users/oh/development/flutter/packages/flutter",
      "packageUri": "lib/",
      "languageVersion": "2.12"
    },
    {
      "name": "flutter_lints",
      "rootUri": "file:///Users/oh/development/flutter/.pub-cache/hosted/pub.dartlang.org/flutter_lints-1.0.4",
      "packageUri": "lib/",
      "languageVersion": "2.12"
    },
    {
      "name": "flutter_plugin_android_lifecycle",
      "rootUri": "file:///Users/oh/development/flutter/.pub-cache/hosted/pub.dartlang.org/flutter_plugin_android_lifecycle-2.0.5",
      "packageUri": "lib/",
      "languageVersion": "2.12"
    },
    {
      "name": "flutter_test",
      "rootUri": "file:///Users/oh/development/flutter/packages/flutter_test",
      "packageUri": "lib/",
      "languageVersion": "2.12"
    },
    {
      "name": "flutter_web_plugins",
      "rootUri": "file:///Users/oh/development/flutter/packages/flutter_web_plugins",
      "packageUri": "lib/",
      "languageVersion": "2.12"
    },
    {
      "name": "http",
      "rootUri": "file:///Users/oh/development/flutter/.pub-cache/hosted/pub.dartlang.org/http-0.13.4",
      "packageUri": "lib/",
      "languageVersion": "2.14"
    },
    {
      "name": "http_parser",
      "rootUri": "file:///Users/oh/development/flutter/.pub-cache/hosted/pub.dartlang.org/http_parser-4.0.0",
      "packageUri": "lib/",
      "languageVersion": "2.12"
    },
    {
      "name": "js",
      "rootUri": "file:///Users/oh/development/flutter/.pub-cache/hosted/pub.dartlang.org/js-0.6.3",
      "packageUri": "lib/",
      "languageVersion": "2.12"
    },
    {
      "name": "just_audio",
      "rootUri": "file:///Users/oh/development/flutter/.pub-cache/hosted/pub.dartlang.org/just_audio-0.9.20",
      "packageUri": "lib/",
      "languageVersion": "2.12"
    },
    {
      "name": "just_audio_platform_interface",
      "rootUri": "file:///Users/oh/development/flutter/.pub-cache/hosted/pub.dartlang.org/just_audio_platform_interface-4.1.0",
      "packageUri": "lib/",
      "languageVersion": "2.12"
    },
    {
      "name": "just_audio_web",
      "rootUri": "file:///Users/oh/development/flutter/.pub-cache/hosted/pub.dartlang.org/just_audio_web-0.4.7",
      "packageUri": "lib/",
      "languageVersion": "2.12"
    },
    {
      "name": "lints",
      "rootUri": "file:///Users/oh/development/flutter/.pub-cache/hosted/pub.dartlang.org/lints-1.0.1",
      "packageUri": "lib/",
      "languageVersion": "2.12"
    },
    {
      "name": "logger",
      "rootUri": "file:///Users/oh/development/flutter/.pub-cache/hosted/pub.dartlang.org/logger-1.1.0",
      "packageUri": "lib/",
      "languageVersion": "2.12"
    },
    {
      "name": "matcher",
      "rootUri": "file:///Users/oh/development/flutter/.pub-cache/hosted/pub.dartlang.org/matcher-0.12.11",
      "packageUri": "lib/",
      "languageVersion": "2.12"
    },
    {
      "name": "material_color_utilities",
      "rootUri": "file:///Users/oh/development/flutter/.pub-cache/hosted/pub.dartlang.org/material_color_utilities-0.1.3",
      "packageUri": "lib/",
      "languageVersion": "2.13"
    },
    {
      "name": "meta",
      "rootUri": "file:///Users/oh/development/flutter/.pub-cache/hosted/pub.dartlang.org/meta-1.7.0",
      "packageUri": "lib/",
      "languageVersion": "2.12"
    },
    {
      "name": "mime",
      "rootUri": "file:///Users/oh/development/flutter/.pub-cache/hosted/pub.dartlang.org/mime-1.0.1",
      "packageUri": "lib/",
      "languageVersion": "2.12"
    },
    {
      "name": "nested",
      "rootUri": "file:///Users/oh/development/flutter/.pub-cache/hosted/pub.dartlang.org/nested-1.0.0",
      "packageUri": "lib/",
      "languageVersion": "2.12"
    },
    {
      "name": "package_info",
      "rootUri": "file:///Users/oh/development/flutter/.pub-cache/hosted/pub.dartlang.org/package_info-2.0.2",
      "packageUri": "lib/",
      "languageVersion": "2.12"
    },
    {
      "name": "path",
      "rootUri": "file:///Users/oh/development/flutter/.pub-cache/hosted/pub.dartlang.org/path-1.8.0",
      "packageUri": "lib/",
      "languageVersion": "2.12"
    },
    {
      "name": "path_provider",
      "rootUri": "file:///Users/oh/development/flutter/.pub-cache/hosted/pub.dartlang.org/path_provider-2.0.9",
      "packageUri": "lib/",
      "languageVersion": "2.14"
    },
    {
      "name": "path_provider_android",
      "rootUri": "file:///Users/oh/development/flutter/.pub-cache/hosted/pub.dartlang.org/path_provider_android-2.0.12",
      "packageUri": "lib/",
      "languageVersion": "2.14"
    },
    {
      "name": "path_provider_ios",
      "rootUri": "file:///Users/oh/development/flutter/.pub-cache/hosted/pub.dartlang.org/path_provider_ios-2.0.8",
      "packageUri": "lib/",
      "languageVersion": "2.14"
    },
    {
      "name": "path_provider_linux",
      "rootUri": "file:///Users/oh/development/flutter/.pub-cache/hosted/pub.dartlang.org/path_provider_linux-2.1.5",
      "packageUri": "lib/",
      "languageVersion": "2.12"
    },
    {
      "name": "path_provider_macos",
      "rootUri": "file:///Users/oh/development/flutter/.pub-cache/hosted/pub.dartlang.org/path_provider_macos-2.0.5",
      "packageUri": "lib/",
      "languageVersion": "2.12"
    },
    {
      "name": "path_provider_platform_interface",
      "rootUri": "file:///Users/oh/development/flutter/.pub-cache/hosted/pub.dartlang.org/path_provider_platform_interface-2.0.3",
      "packageUri": "lib/",
      "languageVersion": "2.12"
    },
    {
      "name": "path_provider_windows",
      "rootUri": "file:///Users/oh/development/flutter/.pub-cache/hosted/pub.dartlang.org/path_provider_windows-2.0.5",
      "packageUri": "lib/",
      "languageVersion": "2.12"
    },
    {
      "name": "platform",
      "rootUri": "file:///Users/oh/development/flutter/.pub-cache/hosted/pub.dartlang.org/platform-3.1.0",
      "packageUri": "lib/",
      "languageVersion": "2.12"
    },
    {
      "name": "plugin_platform_interface",
      "rootUri": "file:///Users/oh/development/flutter/.pub-cache/hosted/pub.dartlang.org/plugin_platform_interface-2.1.2",
      "packageUri": "lib/",
      "languageVersion": "2.12"
    },
    {
      "name": "process",
      "rootUri": "file:///Users/oh/development/flutter/.pub-cache/hosted/pub.dartlang.org/process-4.2.4",
      "packageUri": "lib/",
      "languageVersion": "2.14"
    },
    {
      "name": "provider",
      "rootUri": "file:///Users/oh/development/flutter/.pub-cache/hosted/pub.dartlang.org/provider-6.0.2",
      "packageUri": "lib/",
      "languageVersion": "2.12"
    },
    {
      "name": "responsive_framework",
      "rootUri": "file:///Users/oh/development/flutter/.pub-cache/hosted/pub.dartlang.org/responsive_framework-0.1.7",
      "packageUri": "lib/",
      "languageVersion": "2.12"
    },
    {
      "name": "rxdart",
      "rootUri": "file:///Users/oh/development/flutter/.pub-cache/hosted/pub.dartlang.org/rxdart-0.27.3",
      "packageUri": "lib/",
      "languageVersion": "2.12"
    },
    {
      "name": "share",
      "rootUri": "file:///Users/oh/development/flutter/.pub-cache/hosted/pub.dartlang.org/share-2.0.4",
      "packageUri": "lib/",
      "languageVersion": "2.12"
    },
    {
      "name": "sky_engine",
      "rootUri": "file:///Users/oh/development/flutter/bin/cache/pkg/sky_engine",
      "packageUri": "lib/",
      "languageVersion": "2.12"
    },
    {
      "name": "source_span",
      "rootUri": "file:///Users/oh/development/flutter/.pub-cache/hosted/pub.dartlang.org/source_span-1.8.1",
      "packageUri": "lib/",
      "languageVersion": "2.12"
    },
    {
      "name": "stack_trace",
      "rootUri": "file:///Users/oh/development/flutter/.pub-cache/hosted/pub.dartlang.org/stack_trace-1.10.0",
      "packageUri": "lib/",
      "languageVersion": "2.12"
    },
    {
      "name": "stream_channel",
      "rootUri": "file:///Users/oh/development/flutter/.pub-cache/hosted/pub.dartlang.org/stream_channel-2.1.0",
      "packageUri": "lib/",
      "languageVersion": "2.12"
    },
    {
      "name": "string_scanner",
      "rootUri": "file:///Users/oh/development/flutter/.pub-cache/hosted/pub.dartlang.org/string_scanner-1.1.0",
      "packageUri": "lib/",
      "languageVersion": "2.12"
    },
    {
      "name": "term_glyph",
      "rootUri": "file:///Users/oh/development/flutter/.pub-cache/hosted/pub.dartlang.org/term_glyph-1.2.0",
      "packageUri": "lib/",
      "languageVersion": "2.12"
    },
    {
      "name": "test_api",
      "rootUri": "file:///Users/oh/development/flutter/.pub-cache/hosted/pub.dartlang.org/test_api-0.4.8",
      "packageUri": "lib/",
      "languageVersion": "2.12"
    },
    {
      "name": "time",
      "rootUri": "file:///Users/oh/development/flutter/.pub-cache/hosted/pub.dartlang.org/time-2.1.0",
      "packageUri": "lib/",
      "languageVersion": "2.12"
    },
    {
      "name": "typed_data",
      "rootUri": "file:///Users/oh/development/flutter/.pub-cache/hosted/pub.dartlang.org/typed_data-1.3.0",
      "packageUri": "lib/",
      "languageVersion": "2.12"
    },
    {
      "name": "uuid",
      "rootUri": "file:///Users/oh/development/flutter/.pub-cache/hosted/pub.dartlang.org/uuid-3.0.6",
      "packageUri": "lib/",
      "languageVersion": "2.12"
    },
    {
      "name": "vector_math",
      "rootUri": "file:///Users/oh/development/flutter/.pub-cache/hosted/pub.dartlang.org/vector_math-2.1.1",
      "packageUri": "lib/",
      "languageVersion": "2.14"
    },
    {
      "name": "win32",
      "rootUri": "file:///Users/oh/development/flutter/.pub-cache/hosted/pub.dartlang.org/win32-2.5.1",
      "packageUri": "lib/",
      "languageVersion": "2.15"
    },
    {
      "name": "xdg_directories",
      "rootUri": "file:///Users/oh/development/flutter/.pub-cache/hosted/pub.dartlang.org/xdg_directories-0.2.0+1",
      "packageUri": "lib/",
      "languageVersion": "2.12"
    },
    {
      "name": "book_editor",
      "rootUri": "../",
      "packageUri": "lib/",
      "languageVersion": "2.16"
    }
  ],
  "generated": "2022-04-26T09:45:09.667110Z",
  "generator": "pub",
  "generatorVersion": "2.16.1"
}
